{
    "$schema": "https://raw.githubusercontent.com/martinring/tmlanguage/master/tmlanguage.json",
    "name": "Inform 7",
    "scopeName": "source.inform7",
    "patterns": [
        {
            "include": "#title"
        },
        {
            "include": "#body"
        }
    ],
    "repository": {
        "title": {
            "begin": "^\".*$",
            "beginCaptures": {
                "0": { "name": "markup.heading.inform7" }
            },
            "end": "$END",
            "patterns": [
                {
                    "include": "#body"
                }
            ]
        },
        "body": {
            "begin": "(?=.)",
            "end": "$END",
            "patterns": [
                {
                    "include": "#source"
                }
            ]
        },
        "source": {
            "patterns": [
                {
                    "include": "#javascriptCommand"
                },
                {
                    "include": "#preformInclusion"
                },
                {
                    "include": "#comment"
                },
                {
                    "include": "#heading"
                },
                {
                    "include": "#tableName"
                },
                {
                    "include": "#javascriptExecution"
                },
                {
                    "include": "#text"
                },
                {
                    "include": "#inform6Inclusion"
                }
            ]
        },
        "javascriptCommand": {
            "begin": "(\\[js\\])(\")",
            "beginCaptures": {
                "1": {
                    "name": "comment.block.inform7",
                    "patterns": [
                        {
                            "name": "punctuation.definition.comment.inform7",
                            "match": "\\["
                        },
                        {
                            "name": "punctuation.definition.comment.inform7",
                            "match": "\\]"
                        }
                    ]
                },
                "2": { "name": "string.quoted.double.inform7" }
            },
            "end": "\"",
            "endCaptures": {
                "0": { "name": "string.quoted.double.inform7" }
            },
            "contentName": "meta.embedded.js",
            "patterns": [
                {
                    "include": "#javascript"
                }
            ]
        },
        "preformInclusion": {
            "name": "meta.embedded.preform",
            "begin": "(\\[preform\\])(\\(-)",
            "beginCaptures": {
                "1": {
                    "name": "comment.block.inform7",
                    "patterns": [
                        {
                            "name": "punctuation.definition.comment.inform7",
                            "match": "\\["
                        },
                        {
                            "name": "punctuation.definition.comment.inform7",
                            "match": "\\]"
                        }
                    ]
                }
            },
            "end": "-\\)",
            "patterns": [
                {
                    "include": "source.preform"
                }
            ]
        },
        "comment": {
            "patterns": [
                {
                    "name": "comment.block.inform7",
                    "begin": "\\[",
                    "beginCaptures": {
                        "0": { "name": "punctuation.definition.comment.inform7" }
                    },
                    "end": "\\]",
                    "endCaptures": {
                        "0": { "name": "punctuation.definition.comment.inform7" }
                    },
                    "patterns": [
                        {
                            "include": "#nestedComment"
                        }
                    ]
                }
            ]
        },
        "nestedComment": {
            "patterns": [
                {
                    "begin": "\\[",
                    "end": "\\]",
                    "patterns": [
                        {
                            "include": "#nestedComment"
                        }
                    ]
                }
            ]
        },
        "heading": {
            "patterns": [
                {
                    "name": "markup.heading.1.inform7",
                    "match": "(?i)^\\s*volume\\s+.*$"
                },
                {
                    "name": "markup.heading.2.inform7",
                    "match": "(?i)^\\s*book\\s+.*$"
                },
                {
                    "name": "markup.heading.3.inform7",
                    "match": "(?i)^\\s*part\\s+.*$"
                },
                {
                    "name": "markup.heading.4.inform7",
                    "match": "(?i)^\\s*chapter\\s+.*$"
                },
                {
                    "name": "markup.heading.5.inform7",
                    "match": "(?i)^\\s*section\\s+.*$"
                }
            ]
        },
        "tableName": {
            "name": "markup.underline.inform7",
            "match": "(?i)^\\s*Table .*$"
        },
        "javascriptExecution": {
            "begin": "(?i)Execute\\s+Javascript\\s+(?:command|code)\\s+(\")",
            "beginCaptures": {
                "1": { "name": "string.quoted.double.inform7" }
            },
            "end": "\"",
            "endCaptures": {
                "0": { "name": "string.quoted.double.inform7" }
            },
            "contentName": "meta.embedded.js",
            "patterns": [
                {
                    "include": "#javascript"
                }
            ]
        },
        "text": {
            "name": "string.quoted.double.inform7",
            "begin": "\"",
            "beginCaptures": {
                "0": { "name": "punctuation.definition.string.begin.inform7" }
            },
            "end": "\"",
            "endCaptures": {
                "0": { "name": "punctuation.definition.string.end.inform7" }
            },
            "patterns": [
                {
                    "name": "invalid.illegal.inform7",
                    "match": "\\]|\\[(?=\")"
                },
                {
                    "include": "#textSubstitution"
                }
            ]
        },
        "textSubstitution": {
            "name": "constant.character.escape.inform7",
            "begin": "\\[",
            "end": "\\]|([^\"])?(?=\")",
            "endCaptures": {
                "1": { "name": "invalid.illegal.inform7" }
            },
            "patterns": [
                {
                    "name": "invalid.illegal.inform7",
                    "match": "\\["
                }
            ]
        },
        "inform6Inclusion": {
            "name": "meta.embedded.inform6",
            "begin": "\\(-",
            "end": "-\\)",
            "patterns": [
                {
                    "include": "source.inform6"
                }
            ]
        },
        "javascript": {
            "patterns": [
                {
                    "name": "invalid.illegal.inform7",
                    "match": "\\]|\\[(?=\")"
                },
                {
                    "include": "#textSubstitution"
                },
                {
                    "name": "invalid.illegal.js",
                    "match": "//.*$"
                },
                {
                    "name": "invalid.illegal.js",
                    "match": "'(?=\")"
                },
                {
                    "name": "string.quoted.single.js",
                    "begin": "'",
                    "beginCaptures": {
                        "0": { "name": "punctuation.definition.string.begin.js" }
                    },
                    "end": "(')|([^\"]?)(?=\")",
                    "endCaptures": {
                        "1": { "name": "punctuation.definition.string.end.js" },
                        "2": { "name": "invalid.illegal.js" }
                    },
                    "patterns": [
                        {
                            "include": "#javascriptString"
                        }
                    ]
                },
                {
                    "name": "keyword.control.js",
                    "match": "\\b(await|break|case|catch|continue|default|do|else|finally|for|goto|if|return|switch|throw|try|while|with|yield)\\b"
                },
                {
                    "name": "keyword.operator.expression.js",
                    "match": "\\b(delete|in|instanceof|new|typeof|void)\\b"
                },
                {
                    "name": "keyword.other.js",
                    "match": "\\b(debugger)\\b"
                },
                {
                    "name": "constant.language.js",
                    "match": "\\b(false|Infinity|NaN|true|undefined)\\b"
                },
                {
                    "name": "storage.type.js",
                    "match": "\\b(class|const|function|interface|let|var)\\b"
                },
                {
                    "name": "storage.modifier.js",
                    "match": "\\b(extends|private|protected|public|static)\\b"
                },
                {
                    "name": "variable.language.js",
                    "match": "\\b(arguments|null|this)\\b"
                },
                {
                    "name": "support.class.js",
                    "match": "\\b(Array|console|Date|Math|Number|Object|String)\\b"
                },
                {
                    "name": "constant.numeric.integer.js",
                    "match": "\\b\\d+\\b"
                },
                {
                    "name": "entity.name.function.js",
                    "match": "(\\$|\\b[a-zA-Z_])[\\w\\$]*(?=\\s*\\()"
                },
                {
                    "name": "variable.other.js",
                    "match": "(\\$|\\b[a-zA-Z_])[\\w\\$]*"
                }
            ]
        },
        "javascriptString": {
            "patterns": [
                {
                    "name": "invalid.illegal.inform7",
                    "match": "\\]|\\[(?=\")"
                },
                {
                    "include": "#textSubstitution"
                },
                {
                    "name": "invalid.illegal.js",
                    "match": "\\\\(?:[1-7][0-7]{0,2}|[0-7]{2,3})"
                },
                {
                    "name": "constant.character.escape.js",
                    "match": "\\\\(?:x[a-fA-F0-9]{2}|u[a-fA-F0-9]{4}|u\\{([0-9a-fA-F]{1,})\\}|[^\" ])"
                }
            ]
        }
    }
}
